{
    "KPlugin": {
        "Authors": [
            {
                "Email": "mart@kde.org",
                "Name": "Marco Martin",
                "Name[az]": "Marco Martin",
                "Name[bg]": "Marco Martin",
                "Name[ca@valencia]": "Marco Martin",
                "Name[ca]": "Marco Martin",
                "Name[cs]": "Marco Martin",
                "Name[en_GB]": "Marco Martin",
                "Name[es]": "Marco Martin",
                "Name[eu]": "Marco Martin",
                "Name[fi]": "Marco Martin",
                "Name[fr]": "Marco Martin",
                "Name[ia]": "Marco Martin",
                "Name[id]": "Marco Martin",
                "Name[it]": "Marco Martin",
                "Name[ka]": "Marco Martin",
                "Name[ko]": "Marco Martin",
                "Name[nl]": "Marco Martin",
                "Name[nn]": "Marco Martin",
                "Name[pl]": "Marco Martin",
                "Name[pt]": "Marco Martin",
                "Name[pt_BR]": "Marco Martin",
                "Name[ru]": "Marco Martin",
                "Name[sl]": "Marco Martin",
                "Name[sv]": "Marco Martin",
                "Name[tr]": "Marco Martin",
                "Name[uk]": "Marco Martin",
                "Name[vi]": "Marco Martin",
                "Name[x-test]": "xxMarco Martinxx",
                "Name[zh_CN]": "Marco Martin"
            }
        ],
        "Category": "Windows and Tasks",
        "Description": "Example showing how to write your own tasks Widget",
        "Description[az]": "Tapşırıqlar siyahısı ilə vidjet nümunələri",
        "Description[bg]": "Пример, показващ как да напишете свой собствен уиджет за задачи",
        "Description[ca@valencia]": "Exemple que mostra com escriure el vostre propi giny de tasques",
        "Description[ca]": "Exemple que mostra com escriure el vostre propi giny de tasques",
        "Description[en_GB]": "Example showing how to write your own tasks Widget",
        "Description[es]": "Ejemplo que muestra cómo escribir un widget de tareas personalizado",
        "Description[eu]": "Zure ataza propioen trepeta nola idatzi erakusten duen adibidea",
        "Description[fi]": "Esimerkki miten kirjoittaa oma tehtäväsovelma",
        "Description[fr]": "Exemple montrant comment écrire vos propres tâches de composants graphiques",
        "Description[ia]": "Exemplo monstrante como scriber tu proprie Widget de cargas",
        "Description[id]": "Contoh yang menunjukkan cara menulis Widget tugas Anda sendiri",
        "Description[it]": "Esempio che mostra come scrivere il proprio widget",
        "Description[ko]": "작업 관리 위젯을 작성하는 방법을 보여 주는 예제",
        "Description[nl]": "Voorbeeld die toont hoe u uw eigen taak-widget schrijft",
        "Description[nn]": "Eksempel på korleis du kan skriva dine eigne oppgåveelement",
        "Description[pl]": "Przykład pokazujący w jaki sposób napisać swój własny element interfejsu zadań",
        "Description[pt]": "Exemplo que mostra como criar o seu próprio elemento de Tarefas",
        "Description[ru]": "Пример виджета со списком задач",
        "Description[sl]": "Primer prikaza kako napisati vaš lastni gradnik dejavnosti",
        "Description[sv]": "Exempel som visar hur man skriver en egen grafisk komponent för aktiviteter",
        "Description[tr]": "Kendi görevler araç takımınızı nice yazabileceğiniz üzerine örnek",
        "Description[uk]": "Приклад, який демонструє створення власного віджета задач",
        "Description[vi]": "Ví dụ cho thấy cách viết Phụ kiện tác vụ của riêng bạn",
        "Description[x-test]": "xxExample showing how to write your own tasks Widgetxx",
        "Description[zh_CN]": "展示如何编写自定义任务栏挂件的示例程序",
        "Icon": "preferences-system-windows",
        "Id": "org.kde.example.tasks",
        "License": "GPL",
        "Name": "Poor Man's Tasks",
        "Name[az]": "\"Yoxsul adam\" tapşırıqları",
        "Name[bg]": "Poor Man's Tasks",
        "Name[ca@valencia]": "Tasques senzilles",
        "Name[ca]": "Tasques senzilles",
        "Name[en_GB]": "Poor Man's Tasks",
        "Name[es]": "Tareas del hombre pobre",
        "Name[eu]": "Gizon txiroaren atazak",
        "Name[fi]": "Köyhän miehen tehtävät",
        "Name[fr]": "Tâches de l'homme pauvre",
        "Name[ia]": "Cargas del Paupere Homine",
        "Name[id]": "Poor Man's Tasks",
        "Name[it]": "Operazioni semplici",
        "Name[ka]": "საწყალი კაცის ამოცანები",
        "Name[ko]": "대강 만든 작업 관리",
        "Name[nl]": "Taken van 'Poor Man'",
        "Name[nn]": "Fattigmanns oppgåvehandsamar",
        "Name[pl]": "Zadania biednego człowieka",
        "Name[pt]": "Tarefas Simplificadas",
        "Name[pt_BR]": "Tarefas do pobre homem",
        "Name[ru]": "Панель задач «для бедных»",
        "Name[sl]": "Naloge revnega moža",
        "Name[sv]": "Fattigmans aktiviteter",
        "Name[tr]": "Yoksul Adamın Görevleri",
        "Name[uk]": "Задачі для початківців",
        "Name[vi]": "Tác vụ của người đàn ông nghèo",
        "Name[x-test]": "xxPoor Man's Tasksxx",
        "Name[zh_CN]": "简易版任务栏控件",
        "ServiceTypes": [
            "Plasma/Applet"
        ],
        "Version": "",
        "Website": ""
    },
    "Keywords": "",
    "X-KDE-ParentApp": "",
    "X-Plasma-API": "declarativeappletscript",
    "X-Plasma-MainScript": "ui/qmltasks.qml"
}
